10 Resampling for Evaluating Performance
…
此处使用 V = 3 仅为说明交叉验证是一个不错的选择，在实践中，最常用的 V 值是5或10。因为较大的 V 值会导致重采样估计的偏差较小，但方差较大；较小的 V 值则相反——偏差较大，但方差较小。我们通常倾向于将10折交叉验证作为默认选择，因为在大多数情况下，它的规模足以产生良好的结果。

主要输入是训练集和折数 V（默认值为10），生成的对象包含两列：

splits列，包含关于如何分割数据的信息（类似于用于创建初始训练/测试分区的对象）。

id列，包含折的标识符。

虽然splits的每一行都嵌入了整个训练集的副本，但不会在内存中复制数据。打印tibble格式的数据框会显示每一项的频数：[2107/235]表示分析集大约有2000个样本，评估集有235个样本。

set.seed(1001)
ames_folds <- rsample::vfold_cv(ames_train, v = 10)
ames_folds
#> #  10-fold cross-validation 
#> # A tibble: 10 × 2
#>   splits             id    
#>   <list>             <chr> 
#> 1 <split [2107/235]> Fold01
#> 2 <split [2107/235]> Fold02
#> 3 <split [2108/234]> Fold03
#> 4 <split [2108/234]> Fold04
#> 5 <split [2108/234]> Fold05
#> 6 <split [2108/234]> Fold06
#> # ℹ 4 more rows
…
Figure 4: Relationship between the relative variance in performance estimates versus the number of cross-validation repeats

更多的重复次数对标准误差的影响往往较小。然而，如果\(\sigma\)的基线值大得不切实际，那么重复次数增加所带来的边际效益递减可能仍然值得额外的计算成本。

创建重复项，可以使用vfold_v()中的参数repeats：

vfold_cv(ames_train, v = 10, repeats = 5)
#> #  10-fold cross-validation repeated 5 times 
#> # A tibble: 50 × 3
#>   splits             id      id2   
#>   <list>             <chr>   <chr> 
#> 1 <split [2107/235]> Repeat1 Fold01
#> 2 <split [2107/235]> Repeat1 Fold02
#> 3 <split [2108/234]> Repeat1 Fold03
#> 4 <split [2108/234]> Repeat1 Fold04
#> 5 <split [2108/234]> Repeat1 Fold05
#> 6 <split [2108/234]> Repeat1 Fold06
#> # ℹ 44 more rows

Leave-one-out cross-validation

交叉验证的一种变体是留一法（leave-one-out，LOO）交叉验证。如果有n个训练集样本，就会使用训练集中的n-1行数据拟合n个模型。每个模型都会对那个被排除的单一数据点进行预测。在重采样结束时，这n个预测结果会被汇总，以生成一个单一的性能统计量。留一法与几乎所有其他方法相比都存在不足，除了样本量极小的情况外，留一法的计算量过大，而且可能不具备良好的统计特性。尽管rsample包中包含一个loo_cv()函数，但这些对象通常并未整合到更广泛的tidymodels框架中。

Monte Carlo cross-validation

另一种V折交叉验证的变体是蒙特卡洛交叉验证（Monte Carlo cross-validation，MCCV，Xu和Liang（2001））。与V折交叉验证类似，它将固定比例的数据分配给评估集。不同之处在于，每次分配都是随机选择，导致评估集间并非相互排斥。使用mc_cv()函数创建该重采样对象：

mc_cv(ames_train, prop = 9 / 10, times = 20)
#> # Monte Carlo cross-validation (0.9/0.1) with 20 resamples 
#> # A tibble: 20 × 2
#>   splits             id        
#>   <list>             <chr>     
#> 1 <split [2107/235]> Resample01
#> 2 <split [2107/235]> Resample02
#> 3 <split [2107/235]> Resample03
#> 4 <split [2107/235]> Resample04
#> 5 <split [2107/235]> Resample05
#> 6 <split [2107/235]> Resample06
#> # ℹ 14 more rows
…
parallel_over：控制并行处理的执行方式，可选“resamples”或“everything”。

让我们重新考虑一下包含在rf_wflow对象中的随机森林模型，设置保存这些预测结果，以便可视化模型拟合情况和残差：

keep_pred <- control_resamples(save_pred = TRUE, save_workflow = TRUE)

set.seed(1003)
rf_res <-
  rf_wflow %>%
  fit_resamples(resamples = ames_folds, control = keep_pred)
rf_res
#> # Resampling results
#> # 10-fold cross-validation 
#> # A tibble: 10 × 5
#>   splits             id     .metrics         .notes           .predictions
#>   <list>             <chr>  <list>           <list>           <list>      
#> 1 <split [2107/235]> Fold01 <tibble [2 × 4]> <tibble [0 × 4]> <tibble>    
#> 2 <split [2107/235]> Fold02 <tibble [2 × 4]> <tibble [0 × 4]> <tibble>    
#> 3 <split [2108/234]> Fold03 <tibble [2 × 4]> <tibble [0 × 4]> <tibble>    
#> 4 <split [2108/234]> Fold04 <tibble [2 × 4]> <tibble [0 × 4]> <tibble>    
#> 5 <split [2108/234]> Fold05 <tibble [2 × 4]> <tibble [0 × 4]> <tibble>    
#> 6 <split [2108/234]> Fold06 <tibble [2 × 4]> <tibble [0 × 4]> <tibble>    
#> # ℹ 4 more rows
…
collect_metrics(rf_res)
#> # A tibble: 2 × 6
#>   .metric .estimator   mean     n std_err .config        
#>   <chr>   <chr>       <dbl> <int>   <dbl> <chr>          
#> 1 rmse    standard   0.0720    10 0.00306 pre0_mod0_post0
#> 2 rsq     standard   0.832     10 0.0107  pre0_mod0_post0

这些是对各个重采样的性能评估结果取平均值后的计值。要获取每个重采样的性能评估结果，请使用选项summarize = FALSE。请注意，这些性能估计值比第10.1节中的重代入估计值要现实得多！

collect_predictions()可以获取评估集预测结果：

assess_res <- collect_predictions(rf_res)
assess_res
#> # A tibble: 2,342 × 5
#>   .pred id     Sale_Price  .row .config        
#>   <dbl> <chr>       <dbl> <int> <chr>          
#> 1  5.10 Fold01       5.09    10 pre0_mod0_post0
#> 2  4.92 Fold01       4.90    27 pre0_mod0_post0
#> 3  5.21 Fold01       5.08    47 pre0_mod0_post0
#> 4  5.13 Fold01       5.10    52 pre0_mod0_post0
#> 5  5.13 Fold01       5.10    59 pre0_mod0_post0
#> 6  5.13 Fold01       5.11    63 pre0_mod0_post0
#> # ℹ 2,336 more rows
…
# Test it using:
# get_model(lm_fit)

现在让我们将这个函数应用到这10个重抽样拟合结果上。提取函数的结果被包装在一个列表对象中，并以tibble的形式返回：

ctrl <- control_resamples(extract = get_model)

lm_res <- lm_wflow %>% fit_resamples(resamples = ames_folds, control = ctrl)
lm_res
#> # Resampling results
#> # 10-fold cross-validation 
#> # A tibble: 10 × 5
#>   splits             id     .metrics         .notes           .extracts
#>   <list>             <chr>  <list>           <list>           <list>   
#> 1 <split [2107/235]> Fold01 <tibble [2 × 4]> <tibble [0 × 4]> <tibble> 
#> 2 <split [2107/235]> Fold02 <tibble [2 × 4]> <tibble [0 × 4]> <tibble> 
#> 3 <split [2108/234]> Fold03 <tibble [2 × 4]> <tibble [0 × 4]> <tibble> 
#> 4 <split [2108/234]> Fold04 <tibble [2 × 4]> <tibble [0 × 4]> <tibble> 
#> 5 <split [2108/234]> Fold05 <tibble [2 × 4]> <tibble [0 × 4]> <tibble> 
#> 6 <split [2108/234]> Fold06 <tibble [2 × 4]> <tibble [0 × 4]> <tibble> 
#> # ℹ 4 more rows

现在有一个包含嵌套 tibble 的.extracts 列。这些包含什么内容呢？让我们通过子集化来一探究竟。

lm_res$.extracts[[1]]
#> # A tibble: 1 × 2
#>   .extracts         .config        
#>   <list>            <chr>          
#> 1 <tibble [73 × 5]> pre0_mod0_post0

# To get the results
lm_res$.extracts[[1]][[1]]
#> [[1]]
#> # A tibble: 73 × 5
#>   term                        estimate  std.error statistic   p.value
#>   <chr>                          <dbl>      <dbl>     <dbl>     <dbl>
#> 1 (Intercept)                 1.48     0.320         4.62   4.11e-  6
#> 2 Gr_Liv_Area                 0.000158 0.00000476   33.2    9.72e-194
#> 3 Year_Built                  0.00180  0.000149     12.1    1.57e- 32
#> 4 Neighborhood_College_Creek -0.00163  0.0373       -0.0438 9.65e-  1
#> 5 Neighborhood_Old_Town      -0.0757   0.0138       -5.47   4.92e-  8
#> 6 Neighborhood_Edwards       -0.109    0.0310       -3.53   4.21e-  4
#> # ℹ 67 more rows

这看起来可能是一种复杂的保存模型结果的方法。然而，extract十分灵活，它并不假设用户每个重抽样只保存一个tibble。例如，tidy()方法既可以在配方上运行，也可以在模型上运行。在这种情况下，会返回一个包含两个 tibble 的列表。

对于我们这个更简单的示例，所有结果都可以使用以下方式进行扁平化处理和收集：

all_coef <- map_dfr(lm_res$.extracts, ~ .x[[1]][[1]])
# Show the replicates for a single predictor:
filter(all_coef, term == "Year_Built")
#> # A tibble: 10 × 5
#>   term       estimate std.error statistic  p.value
#>   <chr>         <dbl>     <dbl>     <dbl>    <dbl>
#> 1 Year_Built  0.00180  0.000149      12.1 1.57e-32
#> 2 Year_Built  0.00180  0.000151      12.0 6.45e-32
#> 3 Year_Built  0.00185  0.000150      12.3 1.00e-33
#> 4 Year_Built  0.00183  0.000147      12.5 1.90e-34
#> 5 Year_Built  0.00184  0.000150      12.2 2.47e-33
#> 6 Year_Built  0.00180  0.000150      12.0 3.35e-32
#> # ℹ 4 more rows
…
