13 Grid Search
…
此输出表明参数对象是完整的，并打印了它们的默认范围。这些值将用于演示如何创建不同类型的参数网格。

Regular grids

规则网格是不同参数值集合的组合。首先，用户为每个参数创建一组不同的值。每个参数的可能值数量不必相同。tidyr包中的函数crossing()是创建规则网格的一种方法：

crossing(
  hidden_units = 1:3,
  penalty = c(0.0, 0.1),
  epochs = c(100, 200)
)
#> # A tibble: 12 × 3
#>   hidden_units penalty epochs
#>          <int>   <dbl>  <dbl>
#> 1            1     0      100
#> 2            1     0      200
#> 3            1     0.1    100
#> 4            1     0.1    200
#> 5            2     0      100
#> 6            2     0      200
#> # ℹ 6 more rows

参数对象知道参数的范围。dials包包含一组grid_*()函数，这些函数将参数对象作为输入，以生成不同类型的网格。例如：

grid_regular(mlp_param, levels = 2)
#> # A tibble: 8 × 3
#>   hidden_units      penalty epochs
#>          <int>        <dbl>  <int>
#> 1            1 0.0000000001     10
#> 2           10 0.0000000001     10
#> 3            1 1                10
#> 4           10 1                10
#> 5            1 0.0000000001   1000
#> 6           10 0.0000000001   1000
#> # ℹ 2 more rows

levels参数用来设定每个参数创建时的水平数量。它也可以接受一个命名的值向量：

mlp_param %>%
  grid_regular(levels = c(hidden_units = 3, penalty = 2, epochs = 2))
#> # A tibble: 12 × 3
#>   hidden_units      penalty epochs
#>          <int>        <dbl>  <int>
#> 1            1 0.0000000001     10
#> 2            5 0.0000000001     10
#> 3           10 0.0000000001     10
#> 4            1 1                10
#> 5            5 1                10
#> 6           10 1                10
#> # ℹ 6 more rows
…
首先，让我们评估一个在重采样中包含三个级别的常规网格：

roc_res <- metric_set(roc_auc)
set.seed(1305)
mlp_reg_tune <-
  mlp_wflow %>%
  tune_grid(
    cell_folds,
    grid = mlp_param %>% grid_regular(levels = 3),
    metrics = roc_res
  )
mlp_reg_tune
#> # Tuning results
#> # 10-fold cross-validation 
#> # A tibble: 10 × 4
#>   splits             id     .metrics          .notes          
#>   <list>             <chr>  <list>            <list>          
#> 1 <split [1817/202]> Fold01 <tibble [81 × 8]> <tibble [0 × 4]>
#> 2 <split [1817/202]> Fold02 <tibble [81 × 8]> <tibble [0 × 4]>
#> 3 <split [1817/202]> Fold03 <tibble [81 × 8]> <tibble [0 × 4]>
#> 4 <split [1817/202]> Fold04 <tibble [81 × 8]> <tibble [0 × 4]>
#> 5 <split [1817/202]> Fold05 <tibble [81 × 8]> <tibble [0 × 4]>
#> 6 <split [1817/202]> Fold06 <tibble [81 × 8]> <tibble [0 × 4]>
#> # ℹ 4 more rows
…
set.seed(1306)
mlp_sfd_tune <-
  mlp_wflow %>%
  tune_grid(
    cell_folds,
    grid = 20,
    # Pass in the parameter object to use the appropriate range:
    param_info = mlp_param,
    metrics = roc_res
  )
mlp_sfd_tune
#> # Tuning results
#> # 10-fold cross-validation 
#> # A tibble: 10 × 4
#>   splits             id     .metrics          .notes          
#>   <list>             <chr>  <list>            <list>          
#> 1 <split [1817/202]> Fold01 <tibble [20 × 8]> <tibble [0 × 4]>
#> 2 <split [1817/202]> Fold02 <tibble [20 × 8]> <tibble [0 × 4]>
#> 3 <split [1817/202]> Fold03 <tibble [20 × 8]> <tibble [0 × 4]>
#> 4 <split [1817/202]> Fold04 <tibble [20 × 8]> <tibble [0 × 4]>
#> 5 <split [1817/202]> Fold05 <tibble [20 × 8]> <tibble [0 × 4]>
#> 6 <split [1817/202]> Fold06 <tibble [20 × 8]> <tibble [0 × 4]>
#> # ℹ 4 more rows
…
