15 Screening Many Models
…
选项列现在包含了我们在workflow_map()调用中使用的所有选项。这使得我们的结果具有可重复性。在result列中，“tune[+]”和“rsmp[+]”标记表示该对象未出现任何问题；而像“tune[x]”这样的值，则表明由于某种原因，所有模型均未能通过测试。

有一些便捷函数可用于检查结果，例如grid_results。rank_results()函数会根据某种性能指标对模型进行排序。默认情况下，它使用指标集合中的第一个指标（本例中为RMSE）。让我们使用filter()仅查看RMSE：

grid_results %>%
  rank_results() %>%
  filter(.metric == "rmse") %>%
  select(model, .config, rmse = mean, rank)
#> # A tibble: 252 × 4
#>   model        .config                rmse  rank
#>   <chr>        <chr>                 <dbl> <int>
#> 1 cubist_rules Preprocessor1_Model24  4.71     1
#> 2 cubist_rules Preprocessor1_Model21  4.72     2
#> 3 cubist_rules Preprocessor1_Model10  4.76     3
#> 4 cubist_rules Preprocessor1_Model23  4.78     4
#> 5 cubist_rules Preprocessor1_Model16  4.78     5
#> 6 cubist_rules Preprocessor1_Model19  4.78     6
#> # ℹ 246 more rows
…
