17 Encoding Categorical Data
…
正如第16.4节所详述，我们可以使用训练数据对recipe进行prep()处理，以调整或估计预处理转换所需的参数。随后，我们可利用tidy()方法整理这一已准备好的recipe，查看最终结果：

glm_estimates <-
  prep(ames_glm) %>%
  tidy(number = 2)

glm_estimates
#> # A tibble: 29 × 4
#>   level              value terms        id               
#>   <chr>              <dbl> <chr>        <chr>            
#> 1 North_Ames          5.15 Neighborhood lencode_glm_yj20u
#> 2 College_Creek       5.29 Neighborhood lencode_glm_yj20u
#> 3 Old_Town            5.07 Neighborhood lencode_glm_yj20u
#> 4 Edwards             5.09 Neighborhood lencode_glm_yj20u
#> 5 Somerset            5.35 Neighborhood lencode_glm_yj20u
#> 6 Northridge_Heights  5.49 Neighborhood lencode_glm_yj20u
#> # ℹ 23 more rows
…
让我们对这个recipe对象进行prep()和tidy()处理，看看效果：

mixed_estimates <-
  prep(ames_mixed) %>%
  tidy(number = 2)

mixed_estimates
#> # A tibble: 29 × 4
#>   level              value terms        id                 
#>   <chr>              <dbl> <chr>        <chr>              
#> 1 North_Ames          5.15 Neighborhood lencode_mixed_AmBz1
#> 2 College_Creek       5.29 Neighborhood lencode_mixed_AmBz1
#> 3 Old_Town            5.07 Neighborhood lencode_mixed_AmBz1
#> 4 Edwards             5.10 Neighborhood lencode_mixed_AmBz1
#> 5 Somerset            5.35 Neighborhood lencode_mixed_AmBz1
#> 6 Northridge_Heights  5.49 Neighborhood lencode_mixed_AmBz1
#> # ℹ 23 more rows
…
library(rlang)
#> 
#> Attaching package: 'rlang'
#> The following objects are masked from 'package:purrr':
#> 
#>     %@%, flatten, flatten_chr, flatten_dbl, flatten_int,
#>     flatten_lgl, flatten_raw, invoke, splice

ames_hashed <-
  ames_train %>%
  mutate(Hash = map_chr(Neighborhood, hash))

ames_hashed %>%
  select(Neighborhood, Hash)
#> # A tibble: 2,342 × 2
#>   Neighborhood    Hash                            
#>   <fct>           <chr>                           
#> 1 North_Ames      076543f71313e522efe157944169d919
#> 2 North_Ames      076543f71313e522efe157944169d919
#> 3 Briardale       b598bec306983e3e68a3118952df8cf0
#> 4 Briardale       b598bec306983e3e68a3118952df8cf0
#> 5 Northpark_Villa 6af95b5db968bf393e78188a81e0e1e4
#> 6 Northpark_Villa 6af95b5db968bf393e78188a81e0e1e4
#> # ℹ 2,336 more rows

如果我们把“Briardale”输入这个哈希函数，每次都会得到相同的输出。在这种情况下，这些街区被称为“keys”，而输出结果则称为“hashes”。哈希函数将大小可变的输入映射为固定大小的输出。哈希函数广泛应用于密码学和数据库领域。

rlang::hash()函数生成一个128位的哈希值，这意味着共有2^128种可能的哈希值。这对于某些应用来说非常理想，但并不适用于高基数变量（即具有大量水平的变量）的特征哈希。在特征哈希中，可能的哈希数量是一个超参数，由模型开发者通过计算整数哈希值的模来设定。例如，我们可以通过 Hash %% 16 获得16种可能的哈希值：

ames_hashed %>%
  ## first make a smaller hash for integers that R can handle
  mutate(
    Hash = strtoi(substr(Hash, 26, 32), base = 16L),
    ## now take the modulo
    Hash = Hash %% 16
  ) %>%
  select(Neighborhood, Hash)
#> # A tibble: 2,342 × 2
#>   Neighborhood     Hash
#>   <fct>           <dbl>
#> 1 North_Ames          9
#> 2 North_Ames          9
#> 3 Briardale           0
#> 4 Briardale           0
#> 5 Northpark_Villa     4
#> 6 Northpark_Villa     4
#> # ℹ 2,336 more rows
…
