19 When Should You Trust Your Predictions ?
…
set.seed(1902)
lm_fit <- fit(lm_wflow, data = Chicago_train)

数据在测试集上的拟合效果如何？我们可以对测试集使用predict()方法，以同时获得预测值和预测区间：

res_test <-
  predict(lm_fit, Chicago_test) %>%
  bind_cols(
    predict(lm_fit, Chicago_test, type = "pred_int"),
    Chicago_test
  )

res_test %>% select(date, ridership, starts_with(".pred"))
#> # A tibble: 14 × 5
#>   date       ridership .pred .pred_lower .pred_upper
#>   <date>         <dbl> <dbl>       <dbl>       <dbl>
#> 1 2016-08-15     20.6  20.3        16.2         24.5
#> 2 2016-08-16     21.0  21.3        17.1         25.4
#> 3 2016-08-17     21.0  21.4        17.3         25.6
#> 4 2016-08-18     21.3  21.4        17.3         25.5
#> 5 2016-08-19     20.4  20.9        16.7         25.0
#> 6 2016-08-20      6.22  7.52        3.34        11.7
#> # ℹ 8 more rows
…
Figure 4: Two weeks of 2016 predictions for the Chicago data along with 95% prediction intervals

鉴于乘客数量的规模，对于这样一个简单的模型来说，这些结果显得尤为出色。如果将该模型投入实际应用，它在几年后的2020年6月表现会如何？事实上，该模型成功地做出了预测——毕竟，作为预测模型，只要输入数据充足，几乎总是能给出准确的结果：

# load("Books/Tidy Modeling with R/Rdata/Chicago_2020.RData")
load("Rdata/Chicago_2020.RData")
res_2020 <-
  predict(lm_fit, Chicago_2020) %>%
  bind_cols(
    predict(lm_fit, Chicago_2020, type = "pred_int"),
    Chicago_2020
  )

res_2020 %>% select(date, contains(".pred"))
#> # A tibble: 14 × 4
#>   date       .pred .pred_lower .pred_upper
#>   <date>     <dbl>       <dbl>       <dbl>
#> 1 2020-06-01 20.1        15.9         24.3
#> 2 2020-06-02 21.4        17.2         25.6
#> 3 2020-06-03 21.5        17.3         25.6
#> 4 2020-06-04 21.3        17.1         25.4
#> 5 2020-06-05 20.7        16.6         24.9
#> 6 2020-06-06  9.04        4.88        13.2
#> # ℹ 8 more rows

尽管这些数据远远超出了原始训练集的时间范围，但预测区间的大致宽度却基本相同。然而，考虑到2020年全球爆发的疫情，这些数据的表现可谓惨不忍睹：

res_2020 %>% select(date, ridership, starts_with(".pred"))
#> # A tibble: 14 × 5
#>   date       ridership .pred .pred_lower .pred_upper
#>   <date>         <dbl> <dbl>       <dbl>       <dbl>
#> 1 2020-06-01     0.002 20.1        15.9         24.3
#> 2 2020-06-02     0.005 21.4        17.2         25.6
#> 3 2020-06-03     0.566 21.5        17.3         25.6
#> 4 2020-06-04     1.66  21.3        17.1         25.4
#> 5 2020-06-05     1.95  20.7        16.6         24.9
#> 6 2020-06-06     1.08   9.04        4.88        13.2
#> # ℹ 8 more rows
…
Figure 8: The results of using the autoplot() method on an applicable object

X轴显示距离的数值，Y轴则标示分布的百分位数。例如，训练集样本中有一半的距离小于3.7。

要计算新数据的百分位数，score()函数的工作方式与predict()相同：

score(pca_stat, Chicago_test) %>% select(starts_with("distance"))
#> # A tibble: 14 × 2
#>   distance distance_pctl
#>      <dbl>         <dbl>
#> 1     4.88          66.7
#> 2     5.21          71.4
#> 3     5.19          71.1
#> 4     5.00          68.5
#> 5     4.36          59.3
#> 6     4.10          55.2
#> # ℹ 8 more rows

这些看起来相当合理。以下是2020年的数据：

score(pca_stat, Chicago_2020) %>% select(starts_with("distance"))
#> # A tibble: 14 × 2
#>   distance distance_pctl
#>      <dbl>         <dbl>
#> 1     9.39          99.8
#> 2     9.40          99.8
#> 3     9.30          99.7
#> 4     9.30          99.7
#> 5     9.29          99.7
#> 6    10.1            1  
#> # ℹ 8 more rows
…
