20 Ensembles of Models
…
Figure 2: The results of using the autoplot() method on the updated blended stacks object

在使用回归模型进行预测融合时，通常会限制融合参数为非负值。对于这些数据而言，这一约束条件导致许多潜在的集成成员被排除；即使在惩罚力度相对较低的情况下，最终形成的集成也仅限于最初十八个成员中的一小部分。

与最小RMSE相关的惩罚值为0.051。打印该对象可显示元学习模型的详细信息：

ens
#> ── A stacked ensemble model ─────────────────────────────────────
#> 
#> Out of 18 possible candidate members, the ensemble retained 7.
#> Penalty: 0.01.
#> Mixture: 1.
#> 
#> The 7 highest weighted members are:
#> # A tibble: 7 × 3
#>   member                    type          weight
#>   <chr>                     <chr>          <dbl>
#> 1 boosting_1_19             boost_tree    0.640 
#> 2 Cubist_1_25               cubist_rules  0.231 
#> 3 CART_1_05                 decision_tree 0.0580
#> 4 full_quad_linear_reg_1_16 linear_reg    0.0317
#> 5 full_quad_linear_reg_1_17 linear_reg    0.0306
#> 6 CART_bagged_1_1           bag_tree      0.0200
#> # ℹ 1 more row
…
