21 Inferential Analysis
…
从这里，我们通过generate()函数生成自助分布，进而计算该均值的置信区间；对于数据的每个重采样版本，都会计算相同的统计量：

set.seed(2101)
bootstrapped <-
  bioChemists %>%
  specify(art ~ fem) %>%
  generate(reps = 2000, type = "bootstrap") %>%
  calculate(stat = "diff in means", order = c("Men", "Women"))
bootstrapped
#> Response: art (numeric)
#> Explanatory: fem (factor)
#> # A tibble: 2,000 × 2
#>   replicate  stat
#>       <int> <dbl>
#> 1         1 0.467
#> 2         2 0.107
#> 3         3 0.467
#> 4         4 0.308
#> 5         5 0.369
#> 6         6 0.428
#> # ℹ 1,994 more rows
…
如果我们需要一个p值，infer 包可以通过排列检验来计算该值，具体代码如下。其语法与我们之前使用的自助法代码非常相似。我们只需添加一个hypothesize()动词，以明确说明要检验的假设类型；而generate()调用中则包含了一个选项，用于随机打乱数据。

set.seed(2102)
permuted <-
  bioChemists %>%
  specify(art ~ fem) %>%
  hypothesize(null = "independence") %>%
  generate(reps = 2000, type = "permute") %>%
  calculate(stat = "diff in means", order = c("Men", "Women"))
permuted
#> Response: art (numeric)
#> Explanatory: fem (factor)
#> Null Hypothesis: independence
#> # A tibble: 2,000 × 2
#>   replicate     stat
#>       <int>    <dbl>
#> 1         1  0.201  
#> 2         2 -0.133  
#> 3         3  0.109  
#> 4         4 -0.195  
#> 5         5 -0.00128
#> 6         6 -0.102  
#> # ℹ 1,994 more rows
…
首先，我们创建了4000个模型拟合：

zip_form <- art ~ fem + mar + kid5 + ment | fem + mar + kid5 + phd + ment
glm_form <- art ~ fem + mar + kid5 + ment

set.seed(2104)
bootstrap_models <-
  bootstraps(bioChemists, times = 2000, apparent = TRUE) %>%
  mutate(
    glm = map(splits, ~ fit(log_lin_spec, glm_form, data = analysis(.x))),
    zip = map(splits, ~ fit(zero_inflated_spec, zip_form, data = analysis(.x)))
  )
bootstrap_models
#> # Bootstrap sampling with apparent sample 
#> # A tibble: 2,001 × 4
#>   splits            id            glm      zip     
#>   <list>            <chr>         <list>   <list>  
#> 1 <split [915/355]> Bootstrap0001 <fit[+]> <fit[+]>
#> 2 <split [915/333]> Bootstrap0002 <fit[+]> <fit[+]>
#> 3 <split [915/337]> Bootstrap0003 <fit[+]> <fit[+]>
#> 4 <split [915/344]> Bootstrap0004 <fit[+]> <fit[+]>
#> 5 <split [915/351]> Bootstrap0005 <fit[+]> <fit[+]>
#> 6 <split [915/354]> Bootstrap0006 <fit[+]> <fit[+]>
#> # ℹ 1,995 more rows
…
