8 Feature Engineering with recipes
…
lm_wflow <-
  workflow() %>%
  add_model(lm_model) %>%
  add_recipe(ames_rec)

lm_fit <- fit(lm_wflow, ames_train)

可以再次调用tidy()方法，并结合我们指定的id标识符，以获取应用step_other()后的结果：

estimated_recipe <-
  lm_fit %>%
  extract_recipe(estimated = TRUE)

tidy(estimated_recipe, id = "my_id")
#> # A tibble: 22 × 3
#>   terms        retained           id   
#>   <chr>        <chr>              <chr>
#> 1 Neighborhood North_Ames         my_id
#> 2 Neighborhood College_Creek      my_id
#> 3 Neighborhood Old_Town           my_id
#> 4 Neighborhood Edwards            my_id
#> 5 Neighborhood Somerset           my_id
#> 6 Neighborhood Northridge_Heights my_id
#> # ℹ 16 more rows

我们在这里看到的使用tidy()得到的tidy()结果显示了哪些因子水平被保留了下来，也就是说，没有被添加到新的“其他”类别中。

如果我们知道recipe中需要哪一步，tidy()方法也可以与number标识符一起调用：

tidy(estimated_recipe, number = 2)
#> # A tibble: 22 × 3
#>   terms        retained           id   
#>   <chr>        <chr>              <chr>
#> 1 Neighborhood North_Ames         my_id
#> 2 Neighborhood College_Creek      my_id
#> 3 Neighborhood Old_Town           my_id
#> 4 Neighborhood Edwards            my_id
#> 5 Neighborhood Somerset           my_id
#> 6 Neighborhood Northridge_Heights my_id
#> # ℹ 16 more rows
…
