9 Judging Model Effectiveness
…
lm_model <- linear_reg() %>% set_engine("lm")

lm_wflow <-
  workflow() %>%
  add_model(lm_model) %>%
  add_recipe(ames_rec)

lm_fit <- fit(lm_wflow, ames_train)
ames_test_res <- predict(lm_fit, new_data = ames_test %>% select(-Sale_Price))
ames_test_res
#> # A tibble: 588 × 1
#>   .pred
#>   <dbl>
#> 1  5.07
#> 2  5.31
#> 3  5.28
#> 4  5.33
#> 5  5.30
#> 6  5.24
#> # ℹ 582 more rows

回归模型的预测数值结果被命名为.pred。让我们将预测值与其对应的观测结果值进行匹配：

ames_test_res <- bind_cols(ames_test_res, ames_test %>% select(Sale_Price))
ames_test_res
#> # A tibble: 588 × 2
#>   .pred Sale_Price
#>   <dbl>      <dbl>
#> 1  5.07       5.02
#> 2  5.31       5.39
#> 3  5.28       5.28
#> 4  5.33       5.28
#> 5  5.30       5.28
#> 6  5.24       5.26
#> # ℹ 582 more rows
…
这种整洁的数据格式将指标垂直堆叠。均方根误差和平均绝对误差这两个指标都与结果处于同一量级（在我们的示例中是log10(Sale_Price)），它们用于衡量预测值与观测值之间的差异。\(R^2\)的值衡量的是预测值与观测值之间的平方相关性，因此该值越接近1越好。

yardstick包中没有用于计算调整后\(R^2\)的函数。这种决定系数的修正形式通常用于使用拟合模型的数据（训练集）来评估模型的情况。tidymodels中没有完全支持这一指标，因为使用与拟合模型不同的独立数据集（测试集）来计算性能总是更好的方法。

Binary Classification Metrics

为了说明衡量模型性能的其他方法，我们将换一个不同的例子。modeldata包（tidymodels中的另一个包）包含来自一个测试数据集的示例预测结果，该数据集有两个类别（“Class1”和“Class2”）：

data(two_class_example)
tibble(two_class_example)
#> # A tibble: 500 × 4
#>   truth   Class1   Class2 predicted
#>   <fct>    <dbl>    <dbl> <fct>    
#> 1 Class2 0.00359 0.996    Class2   
#> 2 Class1 0.679   0.321    Class1   
#> 3 Class2 0.111   0.889    Class2   
#> 4 Class1 0.735   0.265    Class1   
#> 5 Class2 0.0162  0.984    Class2   
#> 6 Class1 0.999   0.000725 Class1   
#> # ℹ 494 more rows
…
f_meas(two_class_example, truth, predicted, event_level = "second")
#> # A tibble: 1 × 3
#>   .metric .estimator .estimate
#>   <chr>   <chr>          <dbl>
#> 1 f_meas  binary         0.826

在这个输出中，.estimator的值“binary”表明将使用二分类的标准公式。

有许多分类指标使用预测概率作为输入，而非硬性类别预测。例如，受试者工作特征（ROC）曲线会在一系列不同的事件阈值上计算敏感性和特异性，且不使用预测类别列。这种方法有两个yardstick函数：roc_curve()用于计算构成ROC曲线的数据点，roc_auc()用于计算曲线下面积。

这些类型的度量函数的接口使用...参数占位符来传入适当的类别概率列。对于二分类问题，感兴趣事件的概率列会被传入函数中：

two_class_curve <- roc_curve(two_class_example, truth, Class1)
two_class_curve
#> # A tibble: 502 × 3
#>   .threshold specificity sensitivity
#>        <dbl>       <dbl>       <dbl>
#> 1 -Inf           0                 1
#> 2    1.79e-7     0                 1
#> 3    4.50e-6     0.00413           1
#> 4    5.81e-6     0.00826           1
#> 5    5.92e-6     0.0124            1
#> 6    1.22e-5     0.0165            1
#> # ℹ 496 more rows
…
Figure 3: Example ROC curve

如果曲线接近对角线，那么该模型的预测不会比随机猜测好。由于曲线位于左上角，我们可以看出我们的模型在不同阈值下都表现良好。

还有许多其他使用概率估计的函数，包括gain_curve()、lift_curve()和pr_curve()。

Multiclass Classification Metrics

那么具有三个或更多类别的数据该如何处理呢？为了说明这一点，让我们来探讨一个不同的示例数据集，该数据集有四个类别：

data(hpc_cv)
tibble(hpc_cv)
#> # A tibble: 3,467 × 7
#>   obs   pred     VF      F       M          L Resample
#>   <fct> <fct> <dbl>  <dbl>   <dbl>      <dbl> <chr>   
#> 1 VF    VF    0.914 0.0779 0.00848 0.0000199  Fold01  
#> 2 VF    VF    0.938 0.0571 0.00482 0.0000101  Fold01  
#> 3 VF    VF    0.947 0.0495 0.00316 0.00000500 Fold01  
#> 4 VF    VF    0.929 0.0653 0.00579 0.0000156  Fold01  
#> 5 VF    VF    0.942 0.0543 0.00381 0.00000729 Fold01  
#> 6 VF    VF    0.951 0.0462 0.00272 0.00000384 Fold01  
#> # ℹ 3,461 more rows
…
宏加权平均也可作为将此指标应用于多类别结果的一个选项：

roc_auc(hpc_cv, obs, VF, F, M, L, estimator = "macro_weighted")
#> # A tibble: 1 × 3
#>   .metric .estimator     .estimate
#>   <chr>   <chr>              <dbl>
#> 1 roc_auc macro_weighted     0.868

最后，所有这些性能指标都可以使用dplyr分组来计算。回想一下，这些数据有一个用于重抽样分组的列。我们尚未详细讨论重抽样，但请注意，我们可以将分组数据框传递给metric函数，以计算每个组的指标：

hpc_cv %>%
  group_by(Resample) %>%
  accuracy(obs, pred)
#> # A tibble: 10 × 4
#>   Resample .metric  .estimator .estimate
#>   <chr>    <chr>    <chr>          <dbl>
#> 1 Fold01   accuracy multiclass     0.726
#> 2 Fold02   accuracy multiclass     0.712
#> 3 Fold03   accuracy multiclass     0.758
#> 4 Fold04   accuracy multiclass     0.712
#> 5 Fold05   accuracy multiclass     0.712
#> 6 Fold06   accuracy multiclass     0.697
#> # ℹ 4 more rows
…
