Data Masking(1)
…
x <- "cyl"
mtcars %>% my_summarise(mean(.data[[x]]))
#>   mean(.data[["cyl"]])
#> 1               6.1875

...

... 不要求额外的语法设置，可以直接使用，用来解析多个参数。

my_group_by <- function(.data, ...) {
  .data %>% dplyr::group_by(...)
}

mtcars %>% my_group_by(cyl = cyl * 100, am)
#> # A tibble: 32 × 11
#> # Groups:   cyl, am [6]
#>     mpg   cyl  disp    hp  drat    wt  qsec    vs    am  gear  carb
#>   <dbl> <dbl> <dbl> <dbl> <dbl> <dbl> <dbl> <dbl> <dbl> <dbl> <dbl>
#> 1  21     600   160   110  3.9   2.62  16.5     0     1     4     4
#> 2  21     600   160   110  3.9   2.88  17.0     0     1     4     4
#> 3  22.8   400   108    93  3.85  2.32  18.6     1     1     4     1
#> 4  21.4   600   258   110  3.08  3.22  19.4     1     0     3     1
#> 5  18.7   800   360   175  3.15  3.44  17.0     0     0     3     2
#> 6  18.1   600   225   105  2.76  3.46  20.2     1     0     3     1
#> # ℹ 26 more rows
…
有些函数会将多个参数同时传递给函数中的一个参数，如下例所示。此时c()生成的不是向量，而是tidy-select组合。

my_pivot_longer <- function(.data, ...) {
  .data %>% tidyr::pivot_longer(c(...))
}

mtcars %>% my_pivot_longer(starts_with("c"), vs:carb)
#> # A tibble: 160 × 8
#>     mpg  disp    hp  drat    wt  qsec name  value
#>   <dbl> <dbl> <dbl> <dbl> <dbl> <dbl> <chr> <dbl>
#> 1    21   160   110   3.9  2.62  16.5 cyl       6
#> 2    21   160   110   3.9  2.62  16.5 carb      4
#> 3    21   160   110   3.9  2.62  16.5 vs        0
#> 4    21   160   110   3.9  2.62  16.5 am        1
#> 5    21   160   110   3.9  2.62  16.5 gear      4
#> 6    21   160   110   3.9  2.88  17.0 cyl       6
#> # ℹ 154 more rows
…
bridge pattern

使用中间桥梁函数解析参数，如across()、transmute()等

across()

my_group_by <- function(data, var) {
  data %>% dplyr::group_by(across({{ var }}))
}

mtcars %>% my_group_by(starts_with("c"))
#> # A tibble: 32 × 11
#> # Groups:   cyl, carb [9]
#>     mpg   cyl  disp    hp  drat    wt  qsec    vs    am  gear  carb
#>   <dbl> <dbl> <dbl> <dbl> <dbl> <dbl> <dbl> <dbl> <dbl> <dbl> <dbl>
#> 1  21       6   160   110  3.9   2.62  16.5     0     1     4     4
#> 2  21       6   160   110  3.9   2.88  17.0     0     1     4     4
#> 3  22.8     4   108    93  3.85  2.32  18.6     1     1     4     1
#> 4  21.4     6   258   110  3.08  3.22  19.4     1     0     3     1
#> 5  18.7     8   360   175  3.15  3.44  17.0     0     0     3     2
#> 6  18.1     6   225   105  2.76  3.46  20.2     1     0     3     1
#> # ℹ 26 more rows

my_group_by <- function(.data, ...) {
  .data %>% dplyr::group_by(across(c(...)))
}

mtcars %>% my_group_by(starts_with("c"), vs:gear)
#> # A tibble: 32 × 11
#> # Groups:   cyl, carb, vs, am, gear [15]
#>     mpg   cyl  disp    hp  drat    wt  qsec    vs    am  gear  carb
#>   <dbl> <dbl> <dbl> <dbl> <dbl> <dbl> <dbl> <dbl> <dbl> <dbl> <dbl>
#> 1  21       6   160   110  3.9   2.62  16.5     0     1     4     4
#> 2  21       6   160   110  3.9   2.88  17.0     0     1     4     4
#> 3  22.8     4   108    93  3.85  2.32  18.6     1     1     4     1
#> 4  21.4     6   258   110  3.08  3.22  19.4     1     0     3     1
#> 5  18.7     8   360   175  3.15  3.44  17.0     0     0     3     2
#> 6  18.1     6   225   105  2.76  3.46  20.2     1     0     3     1
#> # ℹ 26 more rows

my_group_by <- function(data, vars) {
  data %>% dplyr::group_by(across(all_of(vars)))
}

mtcars %>% my_group_by(c("cyl", "am"))
#> # A tibble: 32 × 11
#> # Groups:   cyl, am [6]
#>     mpg   cyl  disp    hp  drat    wt  qsec    vs    am  gear  carb
#>   <dbl> <dbl> <dbl> <dbl> <dbl> <dbl> <dbl> <dbl> <dbl> <dbl> <dbl>
#> 1  21       6   160   110  3.9   2.62  16.5     0     1     4     4
#> 2  21       6   160   110  3.9   2.88  17.0     0     1     4     4
#> 3  22.8     4   108    93  3.85  2.32  18.6     1     1     4     1
#> 4  21.4     6   258   110  3.08  3.22  19.4     1     0     3     1
#> 5  18.7     8   360   175  3.15  3.44  17.0     0     0     3     2
#> 6  18.1     6   225   105  2.76  3.46  20.2     1     0     3     1
#> # ℹ 26 more rows
…
my_pivot_longer <- function(data, ...) {
  # Forward `...` in data-mask context with `transmute()`
  # and save the inputs names
  inputs <- dplyr::transmute(data, ...)
  names <- names(inputs)

  # Update the data with the inputs
  data <- dplyr::mutate(data, !!!inputs)

  # Select the inputs by name with `all_of()`
  tidyr::pivot_longer(data, cols = all_of(names))
}

mtcars %>% my_pivot_longer(cyl, am = am * 100)
#> # A tibble: 64 × 11
#>     mpg  disp    hp  drat    wt  qsec    vs  gear  carb name  value
#>   <dbl> <dbl> <dbl> <dbl> <dbl> <dbl> <dbl> <dbl> <dbl> <chr> <dbl>
#> 1  21     160   110  3.9   2.62  16.5     0     4     4 cyl       6
#> 2  21     160   110  3.9   2.62  16.5     0     4     4 am      100
#> 3  21     160   110  3.9   2.88  17.0     0     4     4 cyl       6
#> 4  21     160   110  3.9   2.88  17.0     0     4     4 am      100
#> 5  22.8   108    93  3.85  2.32  18.6     1     4     1 cyl       4
#> 6  22.8   108    93  3.85  2.32  18.6     1     4     1 am      100
#> # ℹ 58 more rows
…
