暴露组学关联分析
…
exDat <- dplyr::filter(exDat, SampleID %in% samples)
pDat <- dplyr::filter(pDat, SampleID %in% samples)
gDat <- dplyr::select(gDat, geneID, dplyr::all_of(samples))

covars <- c("Asthma", "Sex", "Age")
expos <- colnames(exDat)[-1]
res <- purrr::map(
  expos,
  ~ exwas(.x, covars, exDat, pDat, gDat)
) |>
  purrr::set_names(expos)

res[[1]]
#> # A tibble: 67,528 × 8
#>   geneID            logFC AveExpr     t   P.Value adj.P.Val        B     SE
#>   <chr>             <dbl>   <dbl> <dbl>     <dbl>     <dbl>    <dbl>  <dbl>
#> 1 TC13000973.hg.1  0.161     2.72  4.62 0.0000244     0.564  0.311   0.301 
#> 2 TC13000069.hg.1  0.165     2.68  4.60 0.0000268     0.564  0.260   0.0893
#> 3 TC08000518.hg.1 -0.0657    3.78 -4.55 0.0000311     0.564  0.181   0.161 
#> 4 TC04002007.hg.1  0.151     1.55  4.53 0.0000334     0.564  0.142   0.184 
#> 5 TC13001656.hg.1 -0.174     3.54 -4.46 0.0000428     0.578  0.00807 0.0933
#> 6 TC04000954.hg.1 -0.0673    6.46 -4.38 0.0000557     0.579 -0.134   0.0562
#> # ℹ 67,522 more rows
…
