13 S3
…
#> $dimnames
#> $dimnames[[1]]
#>  [1] "1"  "2"  "3"  "4"  "5"  "6"  "7"  "8"  "9"  "10" "11" "12"
#> 
#> 
#> $class
#> [1] "table"
s3_class(x) # 查看S3 class
#> [1] "table"
class() # 查看class
#> Error in class(): 0 arguments passed to 'class' which requires 1
inherits(x, "classname") # 判断是否属于classname
#> [1] FALSE
sloop::s3_methods_class("table") # 查看类可以用的泛函
#> # A tibble: 10 × 4
#>   generic       class visible source             
#>   <chr>         <chr> <lgl>   <chr>              
#> 1 [             table TRUE    base               
#> 2 aperm         table TRUE    base               
#> 3 as.data.frame table TRUE    base               
#> 4 Axis          table FALSE   registered S3method
#> 5 lines         table FALSE   registered S3method
#> 6 plot          table FALSE   registered S3method
#> # ℹ 4 more rows
sloop::s3_methods_generic("print") # 查看与泛函相关的类
#> # A tibble: 294 × 4
#>   generic class             visible source             
#>   <chr>   <chr>             <lgl>   <chr>              
#> 1 print   acf               FALSE   registered S3method
#> 2 print   activeConcordance FALSE   registered S3method
#> 3 print   AES               FALSE   registered S3method
#> 4 print   all_vars          FALSE   registered S3method
#> 5 print   anova             FALSE   registered S3method
#> 6 print   any_vars          FALSE   registered S3method
#> # ℹ 288 more rows
…
