3 Vectors
…
rownames(df3)
#> [1] "Bob"   "Susan" "Sam"

df3["Bob", ]
#>     age  hair
#> Bob  35 blond

对于tibble为什么不赞成为数据框设置行名，可以参考原文。dataframe转换为tibble时可以使用rownames_to_column()或as_tibble(rownames = "rownames")来保留行名信息。

Printing

在终端以dataframe或tibble格式分别打印数据，会发现：dataframe将所有行列都打印了出来，而tibble只打印前几行及前几列，同时显示未打印列及行的信息，并且显示每列数据的类型，压缩内容过长的单元格，显示特殊数据比如NA。

dplyr::starwars
#> # A tibble: 87 × 14
#>   name           height  mass hair_color  skin_color  eye_color birth_year
#>   <chr>           <int> <dbl> <chr>       <chr>       <chr>          <dbl>
#> 1 Luke Skywalker    172    77 blond       fair        blue            19  
#> 2 C-3PO             167    75 <NA>        gold        yellow         112  
#> 3 R2-D2              96    32 <NA>        white, blue red             33  
#> 4 Darth Vader       202   136 none        white       yellow          41.9
#> 5 Leia Organa       150    49 brown       light       brown           19  
#> 6 Owen Lars         178   120 brown, grey light       blue            52  
#> # ℹ 81 more rows
#> # ℹ 7 more variables: sex <chr>, gender <chr>, homeworld <chr>, …
…
